…
Cross Validation using modelr

``` r
cv_df = 
  crossv_mc(nonlin_df, 100) #generates partitions (with defaul 80/20 split)
```

``` r
#cv_df %>% pull(train) %>% .[[1]] %>% as_tibble

cv_df %>% pull(test) %>% .[[1]] %>% as_tibble
```

    ## # A tibble: 21 x 3
    ##       id      x       y
    ##    <int>  <dbl>   <dbl>
    ##  1     4 0.908  -3.04  
    ##  2     6 0.898  -1.99  
    ##  3    10 0.0618  0.392 
    ##  4    13 0.687  -0.291 
    ##  5    15 0.770  -1.43  
    ##  6    17 0.718  -1.29  
    ##  7    23 0.652  -0.0535
    ##  8    42 0.647   0.158 
    ##  9    46 0.789  -1.23  
    ## 10    50 0.693  -0.684 
    ## # ... with 11 more rows
…
